<svg width="32" height="32" viewBox="0 0 32 32" fill="none" xmlns="http://www.w3.org/2000/svg">
<path d="M0.5 16C0.5 24.5625 7.4375 31.5 16 31.5C24.5625 31.5 31.5 24.5625 31.5 16C31.5 7.4375 24.5625 0.5 16 0.5C7.4375 0.5 0.5 7.4375 0.5 16ZM16 2.5C23.375 2.5 29.5 8.5625 29.5 16C29.5 23.4375 23.4375 29.5 16 29.5C8.5625 29.5 2.5 23.5 2.5 16C2.5 8.625 8.5 2.5 16 2.5ZM21.375 16.5625C21.6875 16.25 21.6875 15.8125 21.375 15.5L14.1875 8.3125C13.875 8 13.4375 8 13.125 8.3125L12.6875 8.75C12.375 9.0625 12.375 9.5 12.6875 9.8125L18.9375 16L12.6875 22.25C12.375 22.5625 12.375 23 12.6875 23.3125L13.125 23.75C13.4375 24.0625 13.875 24.0625 14.1875 23.75L21.375 16.5625Z" fill="white"/>
</svg>
